%YAML 1.1
%TAG !u! tag:unity3d.com,2011:
--- !u!29 &1
OcclusionCullingSettings:
  m_ObjectHideFlags: 0
  serializedVersion: 2
  m_OcclusionBakeSettings:
    smallestOccluder: 5
    smallestHole: 0.25
    backfaceThreshold: 100
  m_SceneGUID: 00000000000000000000000000000000
  m_OcclusionCullingData: {fileID: 0}
--- !u!104 &2
RenderSettings:
  m_ObjectHideFlags: 0
  serializedVersion: 9
  m_Fog: 0
  m_FogColor: {r: 0.5, g: 0.5, b: 0.5, a: 1}
  m_FogMode: 3
  m_FogDensity: 0.01
  m_LinearFogStart: 0
  m_LinearFogEnd: 300
  m_AmbientSkyColor: {r: 0.212, g: 0.227, b: 0.259, a: 1}
  m_AmbientEquatorColor: {r: 0.114, g: 0.125, b: 0.133, a: 1}
  m_AmbientGroundColor: {r: 0.047, g: 0.043, b: 0.035, a: 1}
  m_AmbientIntensity: 1
  m_AmbientMode: 0
  m_SubtractiveShadowColor: {r: 0.42, g: 0.478, b: 0.627, a: 1}
  m_SkyboxMaterial: {fileID: 10304, guid: 0000000000000000f000000000000000, type: 0}
  m_HaloStrength: 0.5
  m_FlareStrength: 1
  m_FlareFadeSpeed: 3
  m_HaloTexture: {fileID: 0}
  m_SpotCookie: {fileID: 10001, guid: 0000000000000000e000000000000000, type: 0}
  m_DefaultReflectionMode: 0
  m_DefaultReflectionResolution: 128
  m_ReflectionBounces: 1
  m_ReflectionIntensity: 1
  m_CustomReflection: {fileID: 0}
  m_Sun: {fileID: 705507994}
  m_IndirectSpecularColor: {r: 0.18028378, g: 0.22571412, b: 0.30692285, a: 1}
  m_UseRadianceAmbientProbe: 0
--- !u!157 &3
LightmapSettings:
  m_ObjectHideFlags: 0
  serializedVersion: 12
  m_GIWorkflowMode: 1
  m_GISettings:
    serializedVersion: 2
    m_BounceScale: 1
    m_IndirectOutputScale: 1
    m_AlbedoBoost: 1
    m_EnvironmentLightingMode: 0
    m_EnableBakedLightmaps: 1
    m_EnableRealtimeLightmaps: 0
  m_LightmapEditorSettings:
    serializedVersion: 12
    m_Resolution: 2
    m_BakeResolution: 40
    m_AtlasSize: 1024
    m_AO: 0
    m_AOMaxDistance: 1
    m_CompAOExponent: 1
    m_CompAOExponentDirect: 0
    m_ExtractAmbientOcclusion: 0
    m_Padding: 2
    m_LightmapParameters: {fileID: 0}
    m_LightmapsBakeMode: 1
    m_TextureCompression: 1
    m_FinalGather: 0
    m_FinalGatherFiltering: 1
    m_FinalGatherRayCount: 256
    m_ReflectionCompression: 2
    m_MixedBakeMode: 2
    m_BakeBackend: 1
    m_PVRSampling: 1
    m_PVRDirectSampleCount: 32
    m_PVRSampleCount: 500
    m_PVRBounces: 2
    m_PVREnvironmentSampleCount: 500
    m_PVREnvironmentReferencePointCount: 2048
    m_PVRFilteringMode: 2
    m_PVRDenoiserTypeDirect: 0
    m_PVRDenoiserTypeIndirect: 0
    m_PVRDenoiserTypeAO: 0
    m_PVRFilterTypeDirect: 0
    m_PVRFilterTypeIndirect: 0
    m_PVRFilterTypeAO: 0
    m_PVREnvironmentMIS: 0
    m_PVRCulling: 1
    m_PVRFilteringGaussRadiusDirect: 1
    m_PVRFilteringGaussRadiusIndirect: 5
    m_PVRFilteringGaussRadiusAO: 2
    m_PVRFilteringAtrousPositionSigmaDirect: 0.5
    m_PVRFilteringAtrousPositionSigmaIndirect: 2
    m_PVRFilteringAtrousPositionSigmaAO: 1
    m_ExportTrainingData: 0
    m_TrainingDataDestination: TrainingData
    m_LightProbeSampleCountMultiplier: 4
  m_LightingDataAsset: {fileID: 0}
  m_LightingSettings: {fileID: 0}
--- !u!196 &4
NavMeshSettings:
  serializedVersion: 2
  m_ObjectHideFlags: 0
  m_BuildSettings:
    serializedVersion: 2
    agentTypeID: 0
    agentRadius: 0.5
    agentHeight: 2
    agentSlope: 45
    agentClimb: 0.4
    ledgeDropHeight: 0
    maxJumpAcrossDistance: 0
    minRegionArea: 2
    manualCellSize: 0
    cellSize: 0.16666667
    manualTileSize: 0
    tileSize: 256
    accuratePlacement: 0
    maxJobWorkers: 0
    preserveTilesOutsideBounds: 0
    debug:
      m_Flags: 0
  m_NavMeshData: {fileID: 0}
--- !u!1 &14859900
GameObject:
  m_ObjectHideFlags: 0
  m_CorrespondingSourceObject: {fileID: 0}
  m_PrefabInstance: {fileID: 0}
  m_PrefabAsset: {fileID: 0}
  serializedVersion: 6
  m_Component:
  - component: {fileID: 14859901}
  - component: {fileID: 14859906}
  - component: {fileID: 14859905}
  - component: {fileID: 14859904}
  - component: {fileID: 14859903}
  - component: {fileID: 14859902}
  m_Layer: 0
  m_Name: Quad_X+
  m_TagString: Untagged
  m_Icon: {fileID: 0}
  m_NavMeshLayer: 0
  m_StaticEditorFlags: 0
  m_IsActive: 1
--- !u!4 &14859901
Transform:
  m_ObjectHideFlags: 0
  m_CorrespondingSourceObject: {fileID: 0}
  m_PrefabInstance: {fileID: 0}
  m_PrefabAsset: {fileID: 0}
  m_GameObject: {fileID: 14859900}
  m_LocalRotation: {x: 0, y: 1, z: 0, w: 0}
  m_LocalPosition: {x: 1.5, y: 0, z: 0}
  m_LocalScale: {x: 0.8, y: 0.8, z: 0.8}
  m_ConstrainProportionsScale: 1
  m_Children:
  - {fileID: 1672878381}
  m_Father: {fileID: 1898965684}
  m_RootOrder: 2
  m_LocalEulerAnglesHint: {x: 0, y: 180, z: 0}
--- !u!114 &14859902
MonoBehaviour:
  m_ObjectHideFlags: 0
  m_CorrespondingSourceObject: {fileID: 0}
  m_PrefabInstance: {fileID: 0}
  m_PrefabAsset: {fileID: 0}
  m_GameObject: {fileID: 14859900}
  m_Enabled: 1
  m_EditorHideFlags: 0
  m_Script: {fileID: 11500000, guid: de30d0362e04bd74891c9efb725f5db2, type: 3}
  m_Name: 
  m_EditorClassIdentifier: 
  velocity: {x: 1, y: 0, z: 0}
  objectToMove: {fileID: 1898965684}
--- !u!114 &14859903
MonoBehaviour:
  m_ObjectHideFlags: 0
  m_CorrespondingSourceObject: {fileID: 0}
  m_PrefabInstance: {fileID: 0}
  m_PrefabAsset: {fileID: 0}
  m_GameObject: {fileID: 14859900}
  m_Enabled: 1
  m_EditorHideFlags: 0
  m_Script: {fileID: 1722872790, guid: 6b6297cc7749f8640b6389fa7c92f21c, type: 3}
  m_Name: 
  m_EditorClassIdentifier: 
  stimulationRenderers:
  - {fileID: 14859900}
  trackableByPlayers: -1
  stimulationUpdateBehaviourType: 0
  onTriggered:
    m_PersistentCalls:
      m_Calls:
      - m_Target: {fileID: 14859902}
        m_TargetAssemblyTypeName: TelekineticObject, Assembly-CSharp
        m_MethodName: StartFocus
        m_Mode: 1
        m_Arguments:
          m_ObjectArgument: {fileID: 0}
          m_ObjectArgumentAssemblyTypeName: UnityEngine.Object, UnityEngine
          m_IntArgument: 0
          m_FloatArgument: 0
          m_StringArgument: 
          m_BoolArgument: 0
        m_CallState: 2
  onMaintained:
    m_PersistentCalls:
      m_Calls: []
  onReleased:
    m_PersistentCalls:
      m_Calls:
      - m_Target: {fileID: 14859902}
        m_TargetAssemblyTypeName: TelekineticObject, Assembly-CSharp
        m_MethodName: StopFocus
        m_Mode: 1
        m_Arguments:
          m_ObjectArgument: {fileID: 0}
          m_ObjectArgumentAssemblyTypeName: UnityEngine.Object, UnityEngine
          m_IntArgument: 0
          m_FloatArgument: 0
          m_StringArgument: 
          m_BoolArgument: 0
        m_CallState: 2
  onConfidenceChanged:
    m_PersistentCalls:
      m_Calls: []
  onBecameActivated:
    m_PersistentCalls:
      m_Calls: []
  onBecameDeactivated:
    m_PersistentCalls:
      m_Calls: []
  onStimulationStateUpdated:
    m_PersistentCalls:
      m_Calls: []
  m_Delegates: 0000000002000000
--- !u!64 &14859904
MeshCollider:
  m_ObjectHideFlags: 0
  m_CorrespondingSourceObject: {fileID: 0}
  m_PrefabInstance: {fileID: 0}
  m_PrefabAsset: {fileID: 0}
  m_GameObject: {fileID: 14859900}
  m_Material: {fileID: 0}
  m_IsTrigger: 0
  m_Enabled: 1
  serializedVersion: 4
  m_Convex: 0
  m_CookingOptions: 30
  m_Mesh: {fileID: 10210, guid: 0000000000000000e000000000000000, type: 0}
--- !u!23 &14859905
MeshRenderer:
  m_ObjectHideFlags: 0
  m_CorrespondingSourceObject: {fileID: 0}
  m_PrefabInstance: {fileID: 0}
  m_PrefabAsset: {fileID: 0}
  m_GameObject: {fileID: 14859900}
  m_Enabled: 1
  m_CastShadows: 1
  m_ReceiveShadows: 1
  m_DynamicOccludee: 1
  m_StaticShadowCaster: 0
  m_MotionVectors: 1
  m_LightProbeUsage: 1
  m_ReflectionProbeUsage: 1
  m_RayTracingMode: 2
  m_RayTraceProcedural: 0
  m_RenderingLayerMask: 1
  m_RendererPriority: 0
  m_Materials:
  - {fileID: 2100000, guid: 6e31aed0fff2d754685d2b4e6d53c7e1, type: 2}
  m_StaticBatchInfo:
    firstSubMesh: 0
    subMeshCount: 0
  m_StaticBatchRoot: {fileID: 0}
  m_ProbeAnchor: {fileID: 0}
  m_LightProbeVolumeOverride: {fileID: 0}
  m_ScaleInLightmap: 1
  m_ReceiveGI: 1
  m_PreserveUVs: 0
  m_IgnoreNormalsForChartDetection: 0
  m_ImportantGI: 0
  m_StitchLightmapSeams: 1
  m_SelectedEditorRenderState: 3
  m_MinimumChartSize: 4
  m_AutoUVMaxDistance: 0.5
  m_AutoUVMaxAngle: 89
  m_LightmapParameters: {fileID: 0}
  m_SortingLayerID: 0
  m_SortingLayer: 0
  m_SortingOrder: 0
  m_AdditionalVertexStreams: {fileID: 0}
--- !u!33 &14859906
MeshFilter:
  m_ObjectHideFlags: 0
  m_CorrespondingSourceObject: {fileID: 0}
  m_PrefabInstance: {fileID: 0}
  m_PrefabAsset: {fileID: 0}
  m_GameObject: {fileID: 14859900}
  m_Mesh: {fileID: 5426058814172902527, guid: 068155645af2a6e438b901bf45ec8b74, type: 3}
--- !u!1 &223185811 stripped
GameObject:
  m_CorrespondingSourceObject: {fileID: 2784421284666592683, guid: f17746ea7d2bf7f4fb6f629bbe718802, type: 3}
  m_PrefabInstance: {fileID: 1333989173}
  m_PrefabAsset: {fileID: 0}
--- !u!4 &223185812 stripped
Transform:
  m_CorrespondingSourceObject: {fileID: 2784421284666592680, guid: f17746ea7d2bf7f4fb6f629bbe718802, type: 3}
  m_PrefabInstance: {fileID: 1333989173}
  m_PrefabAsset: {fileID: 0}
--- !u!114 &223185813
MonoBehaviour:
  m_ObjectHideFlags: 0
  m_CorrespondingSourceObject: {fileID: 0}
  m_PrefabInstance: {fileID: 0}
  m_PrefabAsset: {fileID: 0}
  m_GameObject: {fileID: 223185811}
  m_Enabled: 1
  m_EditorHideFlags: 0
  m_Script: {fileID: 11500000, guid: 74307427d1670b547850738d38105070, type: 3}
  m_Name: 
  m_EditorClassIdentifier: 
  hasMaxSize: 1
  maxSize: {x: 0.5, y: 0.5, z: 0.5}
  referenceDistance: 0
--- !u!1001 &361289289
PrefabInstance:
  m_ObjectHideFlags: 0
  serializedVersion: 2
  m_Modification:
    m_TransformParent: {fileID: 0}
    m_Modifications:
    - target: {fileID: 5199030166457205100, guid: 19db330840e4298489b4d8d95fa44c11, type: 3}
      propertyPath: m_RootOrder
      value: 6
      objectReference: {fileID: 0}
    - target: {fileID: 5199030166457205100, guid: 19db330840e4298489b4d8d95fa44c11, type: 3}
      propertyPath: m_LocalPosition.x
      value: 0
      objectReference: {fileID: 0}
    - target: {fileID: 5199030166457205100, guid: 19db330840e4298489b4d8d95fa44c11, type: 3}
      propertyPath: m_LocalPosition.y
      value: 0
      objectReference: {fileID: 0}
    - target: {fileID: 5199030166457205100, guid: 19db330840e4298489b4d8d95fa44c11, type: 3}
      propertyPath: m_LocalPosition.z
      value: 0
      objectReference: {fileID: 0}
    - target: {fileID: 5199030166457205100, guid: 19db330840e4298489b4d8d95fa44c11, type: 3}
      propertyPath: m_LocalRotation.w
      value: 1
      objectReference: {fileID: 0}
    - target: {fileID: 5199030166457205100, guid: 19db330840e4298489b4d8d95fa44c11, type: 3}
      propertyPath: m_LocalRotation.x
      value: -0
      objectReference: {fileID: 0}
    - target: {fileID: 5199030166457205100, guid: 19db330840e4298489b4d8d95fa44c11, type: 3}
      propertyPath: m_LocalRotation.y
      value: -0
      objectReference: {fileID: 0}
    - target: {fileID: 5199030166457205100, guid: 19db330840e4298489b4d8d95fa44c11, type: 3}
      propertyPath: m_LocalRotation.z
      value: -0
      objectReference: {fileID: 0}
    - target: {fileID: 5199030166457205100, guid: 19db330840e4298489b4d8d95fa44c11, type: 3}
      propertyPath: m_LocalEulerAnglesHint.x
      value: 0
      objectReference: {fileID: 0}
    - target: {fileID: 5199030166457205100, guid: 19db330840e4298489b4d8d95fa44c11, type: 3}
      propertyPath: m_LocalEulerAnglesHint.y
      value: 0
      objectReference: {fileID: 0}
    - target: {fileID: 5199030166457205100, guid: 19db330840e4298489b4d8d95fa44c11, type: 3}
      propertyPath: m_LocalEulerAnglesHint.z
      value: 0
      objectReference: {fileID: 0}
    - target: {fileID: 5199030166457205101, guid: 19db330840e4298489b4d8d95fa44c11, type: 3}
      propertyPath: m_Name
      value: ConnectedDeviceStatus
      objectReference: {fileID: 0}
    - target: {fileID: 5296961324257766925, guid: 19db330840e4298489b4d8d95fa44c11, type: 3}
      propertyPath: m_AnchoredPosition.x
      value: -1.5820045
      objectReference: {fileID: 0}
    - target: {fileID: 5296961324257766925, guid: 19db330840e4298489b4d8d95fa44c11, type: 3}
      propertyPath: m_AnchoredPosition.y
      value: 0.0040016174
      objectReference: {fileID: 0}
    - target: {fileID: 5296961324510970306, guid: 19db330840e4298489b4d8d95fa44c11, type: 3}
      propertyPath: m_SizeDelta.x
      value: 0
      objectReference: {fileID: 0}
    - target: {fileID: 5296961324510970306, guid: 19db330840e4298489b4d8d95fa44c11, type: 3}
      propertyPath: m_SizeDelta.y
      value: 40.6782
      objectReference: {fileID: 0}
    - target: {fileID: 5296961324510970306, guid: 19db330840e4298489b4d8d95fa44c11, type: 3}
      propertyPath: m_AnchoredPosition.x
      value: -123.3999
      objectReference: {fileID: 0}
    - target: {fileID: 5296961324510970306, guid: 19db330840e4298489b4d8d95fa44c11, type: 3}
      propertyPath: m_AnchoredPosition.y
      value: -114
      objectReference: {fileID: 0}
    - target: {fileID: 5296961324579907235, guid: 19db330840e4298489b4d8d95fa44c11, type: 3}
      propertyPath: m_AnchorMax.y
      value: 0
      objectReference: {fileID: 0}
    - target: {fileID: 5296961324579907235, guid: 19db330840e4298489b4d8d95fa44c11, type: 3}
      propertyPath: m_AnchorMin.y
      value: 0
      objectReference: {fileID: 0}
    - target: {fileID: 5296961324579907235, guid: 19db330840e4298489b4d8d95fa44c11, type: 3}
      propertyPath: m_SizeDelta.x
      value: 0
      objectReference: {fileID: 0}
    - target: {fileID: 5296961324579907235, guid: 19db330840e4298489b4d8d95fa44c11, type: 3}
      propertyPath: m_SizeDelta.y
      value: 0
      objectReference: {fileID: 0}
    - target: {fileID: 5296961324579907235, guid: 19db330840e4298489b4d8d95fa44c11, type: 3}
      propertyPath: m_AnchoredPosition.x
      value: 0
      objectReference: {fileID: 0}
    - target: {fileID: 5296961324579907235, guid: 19db330840e4298489b4d8d95fa44c11, type: 3}
      propertyPath: m_AnchoredPosition.y
      value: 0
      objectReference: {fileID: 0}
    - target: {fileID: 5296961326174015636, guid: 19db330840e4298489b4d8d95fa44c11, type: 3}
      propertyPath: m_SizeDelta.x
      value: 107.1774
      objectReference: {fileID: 0}
    - target: {fileID: 5296961326174015636, guid: 19db330840e4298489b4d8d95fa44c11, type: 3}
      propertyPath: m_SizeDelta.y
      value: 52.9681
      objectReference: {fileID: 0}
    - target: {fileID: 5296961326174015636, guid: 19db330840e4298489b4d8d95fa44c11, type: 3}
      propertyPath: m_AnchoredPosition.x
      value: -184.5
      objectReference: {fileID: 0}
    - target: {fileID: 5296961326174015636, guid: 19db330840e4298489b4d8d95fa44c11, type: 3}
      propertyPath: m_AnchoredPosition.y
      value: -49.668945
      objectReference: {fileID: 0}
    - target: {fileID: 6501582554380945359, guid: 19db330840e4298489b4d8d95fa44c11, type: 3}
      propertyPath: m_SizeDelta.y
      value: 0
      objectReference: {fileID: 0}
    - target: {fileID: 6501582554732057190, guid: 19db330840e4298489b4d8d95fa44c11, type: 3}
      propertyPath: m_SizeDelta.x
      value: 161.585
      objectReference: {fileID: 0}
    - target: {fileID: 6501582554732057190, guid: 19db330840e4298489b4d8d95fa44c11, type: 3}
      propertyPath: m_SizeDelta.y
      value: 96.1975
      objectReference: {fileID: 0}
    - target: {fileID: 6501582554732057190, guid: 19db330840e4298489b4d8d95fa44c11, type: 3}
      propertyPath: m_AnchoredPosition.x
      value: -83.80444
      objectReference: {fileID: 0}
    - target: {fileID: 6501582554732057190, guid: 19db330840e4298489b4d8d95fa44c11, type: 3}
      propertyPath: m_AnchoredPosition.y
      value: -49.66919
      objectReference: {fileID: 0}
    m_RemovedComponents: []
  m_SourcePrefab: {fileID: 100100000, guid: 19db330840e4298489b4d8d95fa44c11, type: 3}
--- !u!1 &365345078
GameObject:
  m_ObjectHideFlags: 0
  m_CorrespondingSourceObject: {fileID: 0}
  m_PrefabInstance: {fileID: 0}
  m_PrefabAsset: {fileID: 0}
  serializedVersion: 6
  m_Component:
  - component: {fileID: 365345083}
  - component: {fileID: 365345082}
  - component: {fileID: 365345081}
  - component: {fileID: 365345080}
  - component: {fileID: 365345079}
  m_Layer: 0
  m_Name: Spoot
  m_TagString: Untagged
  m_Icon: {fileID: 0}
  m_NavMeshLayer: 0
  m_StaticEditorFlags: 0
  m_IsActive: 1
--- !u!114 &365345079
MonoBehaviour:
  m_ObjectHideFlags: 0
  m_CorrespondingSourceObject: {fileID: 0}
  m_PrefabInstance: {fileID: 0}
  m_PrefabAsset: {fileID: 0}
  m_GameObject: {fileID: 365345078}
  m_Enabled: 1
  m_EditorHideFlags: 0
  m_Script: {fileID: 11500000, guid: a77315a54a7a09b44a1d21600c3e4e29, type: 3}
  m_Name: 
  m_EditorClassIdentifier: 
  player: {fileID: 1898965684}
  acceptanceRange: 2.02
  acceptanceRangeSqr: 4.0804
  called: 0
--- !u!135 &365345080
SphereCollider:
  m_ObjectHideFlags: 0
  m_CorrespondingSourceObject: {fileID: 0}
  m_PrefabInstance: {fileID: 0}
  m_PrefabAsset: {fileID: 0}
  m_GameObject: {fileID: 365345078}
  m_Material: {fileID: 0}
  m_IsTrigger: 0
  m_Enabled: 1
  serializedVersion: 2
  m_Radius: 0.5
  m_Center: {x: 0, y: 0, z: 0}
--- !u!23 &365345081
MeshRenderer:
  m_ObjectHideFlags: 0
  m_CorrespondingSourceObject: {fileID: 0}
  m_PrefabInstance: {fileID: 0}
  m_PrefabAsset: {fileID: 0}
  m_GameObject: {fileID: 365345078}
  m_Enabled: 1
  m_CastShadows: 1
  m_ReceiveShadows: 1
  m_DynamicOccludee: 1
  m_StaticShadowCaster: 0
  m_MotionVectors: 1
  m_LightProbeUsage: 1
  m_ReflectionProbeUsage: 1
  m_RayTracingMode: 2
  m_RayTraceProcedural: 0
  m_RenderingLayerMask: 1
  m_RendererPriority: 0
  m_Materials:
  - {fileID: 2100000, guid: f33205fc65d9fea4ba090d5c6c3d5fc1, type: 2}
  m_StaticBatchInfo:
    firstSubMesh: 0
    subMeshCount: 0
  m_StaticBatchRoot: {fileID: 0}
  m_ProbeAnchor: {fileID: 0}
  m_LightProbeVolumeOverride: {fileID: 0}
  m_ScaleInLightmap: 1
  m_ReceiveGI: 1
  m_PreserveUVs: 0
  m_IgnoreNormalsForChartDetection: 0
  m_ImportantGI: 0
  m_StitchLightmapSeams: 1
  m_SelectedEditorRenderState: 3
  m_MinimumChartSize: 4
  m_AutoUVMaxDistance: 0.5
  m_AutoUVMaxAngle: 89
  m_LightmapParameters: {fileID: 0}
  m_SortingLayerID: 0
  m_SortingLayer: 0
  m_SortingOrder: 0
  m_AdditionalVertexStreams: {fileID: 0}
--- !u!33 &365345082
MeshFilter:
  m_ObjectHideFlags: 0
  m_CorrespondingSourceObject: {fileID: 0}
  m_PrefabInstance: {fileID: 0}
  m_PrefabAsset: {fileID: 0}
  m_GameObject: {fileID: 365345078}
  m_Mesh: {fileID: 10207, guid: 0000000000000000e000000000000000, type: 0}
--- !u!4 &365345083
Transform:
  m_ObjectHideFlags: 0
  m_CorrespondingSourceObject: {fileID: 0}
  m_PrefabInstance: {fileID: 0}
  m_PrefabAsset: {fileID: 0}
  m_GameObject: {fileID: 365345078}
  m_LocalRotation: {x: 0, y: 0, z: 0, w: 1}
  m_LocalPosition: {x: -70.6, y: 27.5, z: 0}
  m_LocalScale: {x: 0.7293468, y: 0.7293468, z: 0.7293468}
  m_ConstrainProportionsScale: 0
  m_Children: []
  m_Father: {fileID: 0}
  m_RootOrder: 7
  m_LocalEulerAnglesHint: {x: 0, y: 0, z: 0}
--- !u!1 &559231933
GameObject:
  m_ObjectHideFlags: 0
  m_CorrespondingSourceObject: {fileID: 0}
  m_PrefabInstance: {fileID: 0}
  m_PrefabAsset: {fileID: 0}
  serializedVersion: 6
  m_Component:
  - component: {fileID: 559231936}
  - component: {fileID: 559231935}
  - component: {fileID: 559231934}
  m_Layer: 0
  m_Name: EventSystem
  m_TagString: Untagged
  m_Icon: {fileID: 0}
  m_NavMeshLayer: 0
  m_StaticEditorFlags: 0
  m_IsActive: 1
--- !u!114 &559231934
MonoBehaviour:
  m_ObjectHideFlags: 0
  m_CorrespondingSourceObject: {fileID: 0}
  m_PrefabInstance: {fileID: 0}
  m_PrefabAsset: {fileID: 0}
  m_GameObject: {fileID: 559231933}
  m_Enabled: 1
  m_EditorHideFlags: 0
  m_Script: {fileID: 11500000, guid: 4f231c4fb786f3946a6b90b886c48677, type: 3}
  m_Name: 
  m_EditorClassIdentifier: 
  m_SendPointerHoverToParent: 1
  m_HorizontalAxis: Horizontal
  m_VerticalAxis: Vertical
  m_SubmitButton: Submit
  m_CancelButton: Cancel
  m_InputActionsPerSecond: 10
  m_RepeatDelay: 0.5
  m_ForceModuleActive: 0
--- !u!114 &559231935
MonoBehaviour:
  m_ObjectHideFlags: 0
  m_CorrespondingSourceObject: {fileID: 0}
  m_PrefabInstance: {fileID: 0}
  m_PrefabAsset: {fileID: 0}
  m_GameObject: {fileID: 559231933}
  m_Enabled: 1
  m_EditorHideFlags: 0
  m_Script: {fileID: 11500000, guid: 76c392e42b5098c458856cdf6ecaaaa1, type: 3}
  m_Name: 
  m_EditorClassIdentifier: 
  m_FirstSelected: {fileID: 0}
  m_sendNavigationEvents: 1
  m_DragThreshold: 10
--- !u!4 &559231936
Transform:
  m_ObjectHideFlags: 0
  m_CorrespondingSourceObject: {fileID: 0}
  m_PrefabInstance: {fileID: 0}
  m_PrefabAsset: {fileID: 0}
  m_GameObject: {fileID: 559231933}
  m_LocalRotation: {x: 0, y: 0, z: 0, w: 1}
  m_LocalPosition: {x: 0, y: 0, z: 0}
  m_LocalScale: {x: 1, y: 1, z: 1}
  m_ConstrainProportionsScale: 0
  m_Children: []
  m_Father: {fileID: 0}
  m_RootOrder: 5
  m_LocalEulerAnglesHint: {x: 0, y: 0, z: 0}
--- !u!1 &705507993
GameObject:
  m_ObjectHideFlags: 0
  m_CorrespondingSourceObject: {fileID: 0}
  m_PrefabInstance: {fileID: 0}
  m_PrefabAsset: {fileID: 0}
  serializedVersion: 6
  m_Component:
  - component: {fileID: 705507995}
  - component: {fileID: 705507994}
  m_Layer: 0
  m_Name: Directional Light
  m_TagString: Untagged
  m_Icon: {fileID: 0}
  m_NavMeshLayer: 0
  m_StaticEditorFlags: 0
  m_IsActive: 1
--- !u!108 &705507994
Light:
  m_ObjectHideFlags: 0
  m_CorrespondingSourceObject: {fileID: 0}
  m_PrefabInstance: {fileID: 0}
  m_PrefabAsset: {fileID: 0}
  m_GameObject: {fileID: 705507993}
  m_Enabled: 1
  serializedVersion: 10
  m_Type: 1
  m_Shape: 0
  m_Color: {r: 1, g: 0.95686275, b: 0.8392157, a: 1}
  m_Intensity: 1
  m_Range: 10
  m_SpotAngle: 30
  m_InnerSpotAngle: 21.80208
  m_CookieSize: 10
  m_Shadows:
    m_Type: 2
    m_Resolution: -1
    m_CustomResolution: -1
    m_Strength: 1
    m_Bias: 0.05
    m_NormalBias: 0.4
    m_NearPlane: 0.2
    m_CullingMatrixOverride:
      e00: 1
      e01: 0
      e02: 0
      e03: 0
      e10: 0
      e11: 1
      e12: 0
      e13: 0
      e20: 0
      e21: 0
      e22: 1
      e23: 0
      e30: 0
      e31: 0
      e32: 0
      e33: 1
    m_UseCullingMatrixOverride: 0
  m_Cookie: {fileID: 0}
  m_DrawHalo: 0
  m_Flare: {fileID: 0}
  m_RenderMode: 0
  m_CullingMask:
    serializedVersion: 2
    m_Bits: 4294967295
  m_RenderingLayerMask: 1
  m_Lightmapping: 1
  m_LightShadowCasterMode: 0
  m_AreaSize: {x: 1, y: 1}
  m_BounceIntensity: 1
  m_ColorTemperature: 6570
  m_UseColorTemperature: 0
  m_BoundingSphereOverride: {x: 0, y: 0, z: 0, w: 0}
  m_UseBoundingSphereOverride: 0
  m_UseViewFrustumForShadowCasterCull: 1
  m_ShadowRadius: 0
  m_ShadowAngle: 0
--- !u!4 &705507995
Transform:
  m_ObjectHideFlags: 0
  m_CorrespondingSourceObject: {fileID: 0}
  m_PrefabInstance: {fileID: 0}
  m_PrefabAsset: {fileID: 0}
  m_GameObject: {fileID: 705507993}
  m_LocalRotation: {x: 0.40821788, y: -0.23456968, z: 0.10938163, w: 0.8754261}
  m_LocalPosition: {x: 0, y: 3, z: 0}
  m_LocalScale: {x: 1, y: 1, z: 1}
  m_ConstrainProportionsScale: 0
  m_Children: []
  m_Father: {fileID: 0}
  m_RootOrder: 1
  m_LocalEulerAnglesHint: {x: 50, y: -30, z: 0}
--- !u!1 &740600528
GameObject:
  m_ObjectHideFlags: 0
  m_CorrespondingSourceObject: {fileID: 0}
  m_PrefabInstance: {fileID: 0}
  m_PrefabAsset: {fileID: 0}
  serializedVersion: 6
  m_Component:
  - component: {fileID: 740600529}
  - component: {fileID: 740600533}
  - component: {fileID: 740600532}
  - component: {fileID: 740600531}
  - component: {fileID: 740600530}
  - component: {fileID: 740600534}
  m_Layer: 0
  m_Name: Quad_X-
  m_TagString: Untagged
  m_Icon: {fileID: 0}
  m_NavMeshLayer: 0
  m_StaticEditorFlags: 0
  m_IsActive: 1
--- !u!4 &740600529
Transform:
  m_ObjectHideFlags: 0
  m_CorrespondingSourceObject: {fileID: 0}
  m_PrefabInstance: {fileID: 0}
  m_PrefabAsset: {fileID: 0}
  m_GameObject: {fileID: 740600528}
  m_LocalRotation: {x: 1, y: 0, z: 0, w: 0}
  m_LocalPosition: {x: -1.5, y: 0, z: 0}
  m_LocalScale: {x: 0.8, y: 0.8, z: 2.7680004}
  m_ConstrainProportionsScale: 1
  m_Children:
  - {fileID: 1143795548}
  m_Father: {fileID: 1898965684}
  m_RootOrder: 1
  m_LocalEulerAnglesHint: {x: 0, y: 180, z: 180}
--- !u!114 &740600530
MonoBehaviour:
  m_ObjectHideFlags: 0
  m_CorrespondingSourceObject: {fileID: 0}
  m_PrefabInstance: {fileID: 0}
  m_PrefabAsset: {fileID: 0}
  m_GameObject: {fileID: 740600528}
  m_Enabled: 1
  m_EditorHideFlags: 0
  m_Script: {fileID: 1722872790, guid: 6b6297cc7749f8640b6389fa7c92f21c, type: 3}
  m_Name: 
  m_EditorClassIdentifier: 
  stimulationRenderers:
  - {fileID: 740600528}
  trackableByPlayers: -1
  stimulationUpdateBehaviourType: 0
  onTriggered:
    m_PersistentCalls:
      m_Calls:
      - m_Target: {fileID: 740600534}
        m_TargetAssemblyTypeName: TelekineticObject, Assembly-CSharp
        m_MethodName: StartFocus
        m_Mode: 1
        m_Arguments:
          m_ObjectArgument: {fileID: 0}
          m_ObjectArgumentAssemblyTypeName: UnityEngine.Object, UnityEngine
          m_IntArgument: 0
          m_FloatArgument: 0
          m_StringArgument: 
          m_BoolArgument: 0
        m_CallState: 2
  onMaintained:
    m_PersistentCalls:
      m_Calls: []
  onReleased:
    m_PersistentCalls:
      m_Calls:
      - m_Target: {fileID: 740600534}
        m_TargetAssemblyTypeName: TelekineticObject, Assembly-CSharp
        m_MethodName: StopFocus
        m_Mode: 1
        m_Arguments:
          m_ObjectArgument: {fileID: 0}
          m_ObjectArgumentAssemblyTypeName: UnityEngine.Object, UnityEngine
          m_IntArgument: 0
          m_FloatArgument: 0
          m_StringArgument: 
          m_BoolArgument: 0
        m_CallState: 2
  onConfidenceChanged:
    m_PersistentCalls:
      m_Calls: []
  onBecameActivated:
    m_PersistentCalls:
      m_Calls: []
  onBecameDeactivated:
    m_PersistentCalls:
      m_Calls: []
  onStimulationStateUpdated:
    m_PersistentCalls:
      m_Calls: []
  m_Delegates: 0000000002000000
--- !u!64 &740600531
MeshCollider:
  m_ObjectHideFlags: 0
  m_CorrespondingSourceObject: {fileID: 0}
  m_PrefabInstance: {fileID: 0}
  m_PrefabAsset: {fileID: 0}
  m_GameObject: {fileID: 740600528}
  m_Material: {fileID: 0}
  m_IsTrigger: 0
  m_Enabled: 1
  serializedVersion: 4
  m_Convex: 0
  m_CookingOptions: 30
  m_Mesh: {fileID: 10210, guid: 0000000000000000e000000000000000, type: 0}
--- !u!23 &740600532
MeshRenderer:
  m_ObjectHideFlags: 0
  m_CorrespondingSourceObject: {fileID: 0}
  m_PrefabInstance: {fileID: 0}
  m_PrefabAsset: {fileID: 0}
  m_GameObject: {fileID: 740600528}
  m_Enabled: 1
  m_CastShadows: 1
  m_ReceiveShadows: 1
  m_DynamicOccludee: 1
  m_StaticShadowCaster: 0
  m_MotionVectors: 1
  m_LightProbeUsage: 1
  m_ReflectionProbeUsage: 1
  m_RayTracingMode: 2
  m_RayTraceProcedural: 0
  m_RenderingLayerMask: 1
  m_RendererPriority: 0
  m_Materials:
  - {fileID: 2100000, guid: 6e31aed0fff2d754685d2b4e6d53c7e1, type: 2}
  m_StaticBatchInfo:
    firstSubMesh: 0
    subMeshCount: 0
  m_StaticBatchRoot: {fileID: 0}
  m_ProbeAnchor: {fileID: 0}
  m_LightProbeVolumeOverride: {fileID: 0}
  m_ScaleInLightmap: 1
  m_ReceiveGI: 1
  m_PreserveUVs: 0
  m_IgnoreNormalsForChartDetection: 0
  m_ImportantGI: 0
  m_StitchLightmapSeams: 1
  m_SelectedEditorRenderState: 3
  m_MinimumChartSize: 4
  m_AutoUVMaxDistance: 0.5
  m_AutoUVMaxAngle: 89
  m_LightmapParameters: {fileID: 0}
  m_SortingLayerID: 0
  m_SortingLayer: 0
  m_SortingOrder: 0
  m_AdditionalVertexStreams: {fileID: 0}
--- !u!33 &740600533
MeshFilter:
  m_ObjectHideFlags: 0
  m_CorrespondingSourceObject: {fileID: 0}
  m_PrefabInstance: {fileID: 0}
  m_PrefabAsset: {fileID: 0}
  m_GameObject: {fileID: 740600528}
  m_Mesh: {fileID: 5426058814172902527, guid: 068155645af2a6e438b901bf45ec8b74, type: 3}
--- !u!114 &740600534
MonoBehaviour:
  m_ObjectHideFlags: 0
  m_CorrespondingSourceObject: {fileID: 0}
  m_PrefabInstance: {fileID: 0}
  m_PrefabAsset: {fileID: 0}
  m_GameObject: {fileID: 740600528}
  m_Enabled: 1
  m_EditorHideFlags: 0
  m_Script: {fileID: 11500000, guid: de30d0362e04bd74891c9efb725f5db2, type: 3}
  m_Name: 
  m_EditorClassIdentifier: 
  velocity: {x: -1, y: 0, z: 0}
  objectToMove: {fileID: 1898965684}
--- !u!1 &844751176
GameObject:
  m_ObjectHideFlags: 0
  m_CorrespondingSourceObject: {fileID: 0}
  m_PrefabInstance: {fileID: 0}
  m_PrefabAsset: {fileID: 0}
  serializedVersion: 6
  m_Component:
  - component: {fileID: 844751177}
  m_Layer: 0
  m_Name: GameObject
  m_TagString: Untagged
  m_Icon: {fileID: 0}
  m_NavMeshLayer: 0
  m_StaticEditorFlags: 0
  m_IsActive: 1
--- !u!4 &844751177
Transform:
  m_ObjectHideFlags: 0
  m_CorrespondingSourceObject: {fileID: 0}
  m_PrefabInstance: {fileID: 0}
  m_PrefabAsset: {fileID: 0}
  m_GameObject: {fileID: 844751176}
  m_LocalRotation: {x: 0, y: 0, z: 0, w: 1}
  m_LocalPosition: {x: -0.0351703, y: 4.064918, z: -15.301539}
  m_LocalScale: {x: 1, y: 1, z: 1}
  m_ConstrainProportionsScale: 0
  m_Children: []
  m_Father: {fileID: 0}
  m_RootOrder: 2
  m_LocalEulerAnglesHint: {x: 0, y: 0, z: 0}
--- !u!1001 &857025204
PrefabInstance:
  m_ObjectHideFlags: 0
  serializedVersion: 2
  m_Modification:
    m_TransformParent: {fileID: 14859901}
    m_Modifications:
    - target: {fileID: 2784421284666592680, guid: f17746ea7d2bf7f4fb6f629bbe718802, type: 3}
      propertyPath: m_RootOrder
      value: 0
      objectReference: {fileID: 0}
    - target: {fileID: 2784421284666592680, guid: f17746ea7d2bf7f4fb6f629bbe718802, type: 3}
      propertyPath: m_LocalScale.x
      value: 0.098684214
      objectReference: {fileID: 0}
    - target: {fileID: 2784421284666592680, guid: f17746ea7d2bf7f4fb6f629bbe718802, type: 3}
      propertyPath: m_LocalScale.y
      value: 0.098684214
      objectReference: {fileID: 0}
    - target: {fileID: 2784421284666592680, guid: f17746ea7d2bf7f4fb6f629bbe718802, type: 3}
      propertyPath: m_LocalScale.z
      value: 0.098684214
      objectReference: {fileID: 0}
    - target: {fileID: 2784421284666592680, guid: f17746ea7d2bf7f4fb6f629bbe718802, type: 3}
      propertyPath: m_LocalPosition.x
      value: 0
      objectReference: {fileID: 0}
    - target: {fileID: 2784421284666592680, guid: f17746ea7d2bf7f4fb6f629bbe718802, type: 3}
      propertyPath: m_LocalPosition.y
      value: 0
      objectReference: {fileID: 0}
    - target: {fileID: 2784421284666592680, guid: f17746ea7d2bf7f4fb6f629bbe718802, type: 3}
      propertyPath: m_LocalPosition.z
      value: -0.23
      objectReference: {fileID: 0}
    - target: {fileID: 2784421284666592680, guid: f17746ea7d2bf7f4fb6f629bbe718802, type: 3}
      propertyPath: m_LocalRotation.w
      value: 0
      objectReference: {fileID: 0}
    - target: {fileID: 2784421284666592680, guid: f17746ea7d2bf7f4fb6f629bbe718802, type: 3}
      propertyPath: m_LocalRotation.x
      value: -0
      objectReference: {fileID: 0}
    - target: {fileID: 2784421284666592680, guid: f17746ea7d2bf7f4fb6f629bbe718802, type: 3}
      propertyPath: m_LocalRotation.y
      value: 1
      objectReference: {fileID: 0}
    - target: {fileID: 2784421284666592680, guid: f17746ea7d2bf7f4fb6f629bbe718802, type: 3}
      propertyPath: m_LocalRotation.z
      value: -0
      objectReference: {fileID: 0}
    - target: {fileID: 2784421284666592680, guid: f17746ea7d2bf7f4fb6f629bbe718802, type: 3}
      propertyPath: m_LocalEulerAnglesHint.x
      value: 0
      objectReference: {fileID: 0}
    - target: {fileID: 2784421284666592680, guid: f17746ea7d2bf7f4fb6f629bbe718802, type: 3}
      propertyPath: m_LocalEulerAnglesHint.y
      value: 180
      objectReference: {fileID: 0}
    - target: {fileID: 2784421284666592680, guid: f17746ea7d2bf7f4fb6f629bbe718802, type: 3}
      propertyPath: m_LocalEulerAnglesHint.z
      value: 0
      objectReference: {fileID: 0}
    - target: {fileID: 2784421284666592682, guid: f17746ea7d2bf7f4fb6f629bbe718802, type: 3}
      propertyPath: target
      value: 
      objectReference: {fileID: 5354405693169996842, guid: 8b7cfebd693bada4b95bc4f9b6607c72, type: 3}
    - target: {fileID: 2784421284666592682, guid: f17746ea7d2bf7f4fb6f629bbe718802, type: 3}
      propertyPath: neuroTag
      value: 
      objectReference: {fileID: 5354405693169996842, guid: 8b7cfebd693bada4b95bc4f9b6607c72, type: 3}
    - target: {fileID: 2784421284666592682, guid: f17746ea7d2bf7f4fb6f629bbe718802, type: 3}
      propertyPath: smoothingSpeed
      value: 10
      objectReference: {fileID: 0}
    - target: {fileID: 2784421284666592683, guid: f17746ea7d2bf7f4fb6f629bbe718802, type: 3}
      propertyPath: m_Name
      value: TriangleFeedback_Front
      objectReference: {fileID: 0}
    - target: {fileID: 3796235206360208172, guid: f17746ea7d2bf7f4fb6f629bbe718802, type: 3}
      propertyPath: m_DynamicOccludee
      value: 1
      objectReference: {fileID: 0}
    - target: {fileID: 4781141049099387086, guid: f17746ea7d2bf7f4fb6f629bbe718802, type: 3}
      propertyPath: m_DynamicOccludee
      value: 1
      objectReference: {fileID: 0}
    - target: {fileID: 5998451569319936751, guid: f17746ea7d2bf7f4fb6f629bbe718802, type: 3}
      propertyPath: neuroTag
      value: 
      objectReference: {fileID: 0}
    - target: {fileID: 8578901137882341380, guid: f17746ea7d2bf7f4fb6f629bbe718802, type: 3}
      propertyPath: m_DynamicOccludee
      value: 1
      objectReference: {fileID: 0}
    m_RemovedComponents: []
  m_SourcePrefab: {fileID: 100100000, guid: f17746ea7d2bf7f4fb6f629bbe718802, type: 3}
--- !u!1 &963194225
GameObject:
  m_ObjectHideFlags: 0
  m_CorrespondingSourceObject: {fileID: 0}
  m_PrefabInstance: {fileID: 0}
  m_PrefabAsset: {fileID: 0}
  serializedVersion: 6
  m_Component:
  - component: {fileID: 963194228}
  - component: {fileID: 963194227}
  - component: {fileID: 963194226}
  m_Layer: 0
  m_Name: Main Camera
  m_TagString: MainCamera
  m_Icon: {fileID: 0}
  m_NavMeshLayer: 0
  m_StaticEditorFlags: 0
  m_IsActive: 1
--- !u!81 &963194226
AudioListener:
  m_ObjectHideFlags: 0
  m_CorrespondingSourceObject: {fileID: 0}
  m_PrefabInstance: {fileID: 0}
  m_PrefabAsset: {fileID: 0}
  m_GameObject: {fileID: 963194225}
  m_Enabled: 1
--- !u!20 &963194227
Camera:
  m_ObjectHideFlags: 0
  m_CorrespondingSourceObject: {fileID: 0}
  m_PrefabInstance: {fileID: 0}
  m_PrefabAsset: {fileID: 0}
  m_GameObject: {fileID: 963194225}
  m_Enabled: 1
  serializedVersion: 2
  m_ClearFlags: 2
  m_BackGroundColor: {r: 0.14578141, g: 0.2219482, b: 0.49056602, a: 0}
  m_projectionMatrixMode: 1
  m_GateFitMode: 2
  m_FOVAxisMode: 0
  m_SensorSize: {x: 36, y: 24}
  m_LensShift: {x: 0, y: 0}
  m_FocalLength: 50
  m_NormalizedViewPortRect:
    serializedVersion: 2
    x: 0
    y: 0
    width: 1
    height: 1
  near clip plane: 0.3
  far clip plane: 1000
  field of view: 23
  orthographic: 1
  orthographic size: 9.33
  m_Depth: -1
  m_CullingMask:
    serializedVersion: 2
    m_Bits: 4294967295
  m_RenderingPath: -1
  m_TargetTexture: {fileID: 0}
  m_TargetDisplay: 0
  m_TargetEye: 3
  m_HDR: 1
  m_AllowMSAA: 1
  m_AllowDynamicResolution: 0
  m_ForceIntoRT: 0
  m_OcclusionCulling: 1
  m_StereoConvergence: 10
  m_StereoSeparation: 0.022
--- !u!4 &963194228
Transform:
  m_ObjectHideFlags: 0
  m_CorrespondingSourceObject: {fileID: 0}
  m_PrefabInstance: {fileID: 0}
  m_PrefabAsset: {fileID: 0}
  m_GameObject: {fileID: 963194225}
  m_LocalRotation: {x: 0, y: 0, z: 0, w: 1}
  m_LocalPosition: {x: 0, y: 1, z: -45.5}
  m_LocalScale: {x: 1, y: 1, z: 1}
  m_ConstrainProportionsScale: 0
  m_Children: []
  m_Father: {fileID: 0}
  m_RootOrder: 0
  m_LocalEulerAnglesHint: {x: 0, y: 0, z: 0}
--- !u!1 &1127048342
GameObject:
  m_ObjectHideFlags: 0
  m_CorrespondingSourceObject: {fileID: 0}
  m_PrefabInstance: {fileID: 0}
  m_PrefabAsset: {fileID: 0}
  serializedVersion: 6
  m_Component:
  - component: {fileID: 1127048343}
  - component: {fileID: 1127048348}
  - component: {fileID: 1127048347}
  - component: {fileID: 1127048346}
  - component: {fileID: 1127048345}
  - component: {fileID: 1127048344}
  m_Layer: 0
  m_Name: Quad_Y-
  m_TagString: Untagged
  m_Icon: {fileID: 0}
  m_NavMeshLayer: 0
  m_StaticEditorFlags: 0
  m_IsActive: 1
--- !u!4 &1127048343
Transform:
  m_ObjectHideFlags: 0
  m_CorrespondingSourceObject: {fileID: 0}
  m_PrefabInstance: {fileID: 0}
  m_PrefabAsset: {fileID: 0}
  m_GameObject: {fileID: 1127048342}
  m_LocalRotation: {x: 0.7071068, y: 0.7071068, z: 0, w: 0}
  m_LocalPosition: {x: 0, y: -1.5, z: 0}
  m_LocalScale: {x: 0.8, y: 0.8, z: 0.8}
  m_ConstrainProportionsScale: 1
  m_Children:
  - {fileID: 1360092528}
  m_Father: {fileID: 1898965684}
  m_RootOrder: 4
  m_LocalEulerAnglesHint: {x: 0, y: 180, z: 90}
--- !u!114 &1127048344
MonoBehaviour:
  m_ObjectHideFlags: 0
  m_CorrespondingSourceObject: {fileID: 0}
  m_PrefabInstance: {fileID: 0}
  m_PrefabAsset: {fileID: 0}
  m_GameObject: {fileID: 1127048342}
  m_Enabled: 1
  m_EditorHideFlags: 0
  m_Script: {fileID: 11500000, guid: de30d0362e04bd74891c9efb725f5db2, type: 3}
  m_Name: 
  m_EditorClassIdentifier: 
  velocity: {x: 0, y: -1, z: 0}
  objectToMove: {fileID: 1898965684}
--- !u!114 &1127048345
MonoBehaviour:
  m_ObjectHideFlags: 0
  m_CorrespondingSourceObject: {fileID: 0}
  m_PrefabInstance: {fileID: 0}
  m_PrefabAsset: {fileID: 0}
  m_GameObject: {fileID: 1127048342}
  m_Enabled: 1
  m_EditorHideFlags: 0
  m_Script: {fileID: 1722872790, guid: 6b6297cc7749f8640b6389fa7c92f21c, type: 3}
  m_Name: 
  m_EditorClassIdentifier: 
  stimulationRenderers:
  - {fileID: 1127048342}
  trackableByPlayers: -1
  stimulationUpdateBehaviourType: 0
  onTriggered:
    m_PersistentCalls:
      m_Calls:
      - m_Target: {fileID: 1127048344}
        m_TargetAssemblyTypeName: TelekineticObject, Assembly-CSharp
        m_MethodName: StartFocus
        m_Mode: 1
        m_Arguments:
          m_ObjectArgument: {fileID: 0}
          m_ObjectArgumentAssemblyTypeName: UnityEngine.Object, UnityEngine
          m_IntArgument: 0
          m_FloatArgument: 0
          m_StringArgument: 
          m_BoolArgument: 0
        m_CallState: 2
  onMaintained:
    m_PersistentCalls:
      m_Calls: []
  onReleased:
    m_PersistentCalls:
      m_Calls:
      - m_Target: {fileID: 1127048344}
        m_TargetAssemblyTypeName: TelekineticObject, Assembly-CSharp
        m_MethodName: StopFocus
        m_Mode: 1
        m_Arguments:
          m_ObjectArgument: {fileID: 0}
          m_ObjectArgumentAssemblyTypeName: UnityEngine.Object, UnityEngine
          m_IntArgument: 0
          m_FloatArgument: 0
          m_StringArgument: 
          m_BoolArgument: 0
        m_CallState: 2
  onConfidenceChanged:
    m_PersistentCalls:
      m_Calls: []
  onBecameActivated:
    m_PersistentCalls:
      m_Calls: []
  onBecameDeactivated:
    m_PersistentCalls:
      m_Calls: []
  onStimulationStateUpdated:
    m_PersistentCalls:
      m_Calls: []
  m_Delegates: 0000000002000000
--- !u!64 &1127048346
MeshCollider:
  m_ObjectHideFlags: 0
  m_CorrespondingSourceObject: {fileID: 0}
  m_PrefabInstance: {fileID: 0}
  m_PrefabAsset: {fileID: 0}
  m_GameObject: {fileID: 1127048342}
  m_Material: {fileID: 0}
  m_IsTrigger: 0
  m_Enabled: 1
  serializedVersion: 4
  m_Convex: 0
  m_CookingOptions: 30
  m_Mesh: {fileID: 10210, guid: 0000000000000000e000000000000000, type: 0}
--- !u!23 &1127048347
MeshRenderer:
  m_ObjectHideFlags: 0
  m_CorrespondingSourceObject: {fileID: 0}
  m_PrefabInstance: {fileID: 0}
  m_PrefabAsset: {fileID: 0}
  m_GameObject: {fileID: 1127048342}
  m_Enabled: 1
  m_CastShadows: 1
  m_ReceiveShadows: 1
  m_DynamicOccludee: 1
  m_StaticShadowCaster: 0
  m_MotionVectors: 1
  m_LightProbeUsage: 1
  m_ReflectionProbeUsage: 1
  m_RayTracingMode: 2
  m_RayTraceProcedural: 0
  m_RenderingLayerMask: 1
  m_RendererPriority: 0
  m_Materials:
  - {fileID: 2100000, guid: 6e31aed0fff2d754685d2b4e6d53c7e1, type: 2}
  m_StaticBatchInfo:
    firstSubMesh: 0
    subMeshCount: 0
  m_StaticBatchRoot: {fileID: 0}
  m_ProbeAnchor: {fileID: 0}
  m_LightProbeVolumeOverride: {fileID: 0}
  m_ScaleInLightmap: 1
  m_ReceiveGI: 1
  m_PreserveUVs: 0
  m_IgnoreNormalsForChartDetection: 0
  m_ImportantGI: 0
  m_StitchLightmapSeams: 1
  m_SelectedEditorRenderState: 3
  m_MinimumChartSize: 4
  m_AutoUVMaxDistance: 0.5
  m_AutoUVMaxAngle: 89
  m_LightmapParameters: {fileID: 0}
  m_SortingLayerID: 0
  m_SortingLayer: 0
  m_SortingOrder: 0
  m_AdditionalVertexStreams: {fileID: 0}
--- !u!33 &1127048348
MeshFilter:
  m_ObjectHideFlags: 0
  m_CorrespondingSourceObject: {fileID: 0}
  m_PrefabInstance: {fileID: 0}
  m_PrefabAsset: {fileID: 0}
  m_GameObject: {fileID: 1127048342}
  m_Mesh: {fileID: 5426058814172902527, guid: 068155645af2a6e438b901bf45ec8b74, type: 3}
--- !u!1 &1143795547 stripped
GameObject:
  m_CorrespondingSourceObject: {fileID: 2784421284666592683, guid: f17746ea7d2bf7f4fb6f629bbe718802, type: 3}
  m_PrefabInstance: {fileID: 2144505961}
  m_PrefabAsset: {fileID: 0}
--- !u!4 &1143795548 stripped
Transform:
  m_CorrespondingSourceObject: {fileID: 2784421284666592680, guid: f17746ea7d2bf7f4fb6f629bbe718802, type: 3}
  m_PrefabInstance: {fileID: 2144505961}
  m_PrefabAsset: {fileID: 0}
--- !u!114 &1143795549
MonoBehaviour:
  m_ObjectHideFlags: 0
  m_CorrespondingSourceObject: {fileID: 0}
  m_PrefabInstance: {fileID: 0}
  m_PrefabAsset: {fileID: 0}
  m_GameObject: {fileID: 1143795547}
  m_Enabled: 1
  m_EditorHideFlags: 0
  m_Script: {fileID: 11500000, guid: 74307427d1670b547850738d38105070, type: 3}
  m_Name: 
  m_EditorClassIdentifier: 
  hasMaxSize: 1
  maxSize: {x: 0.5, y: 0.5, z: 0.5}
  referenceDistance: 0
--- !u!1 &1217628953
GameObject:
  m_ObjectHideFlags: 0
  m_CorrespondingSourceObject: {fileID: 0}
  m_PrefabInstance: {fileID: 0}
  m_PrefabAsset: {fileID: 0}
  serializedVersion: 6
  m_Component:
  - component: {fileID: 1217628956}
  - component: {fileID: 1217628955}
  - component: {fileID: 1217628954}
  m_Layer: 0
  m_Name: Text (TMP)
  m_TagString: Untagged
  m_Icon: {fileID: 0}
  m_NavMeshLayer: 0
  m_StaticEditorFlags: 0
  m_IsActive: 1
--- !u!114 &1217628954
MonoBehaviour:
  m_ObjectHideFlags: 0
  m_CorrespondingSourceObject: {fileID: 0}
  m_PrefabInstance: {fileID: 0}
  m_PrefabAsset: {fileID: 0}
  m_GameObject: {fileID: 1217628953}
  m_Enabled: 1
  m_EditorHideFlags: 0
  m_Script: {fileID: 11500000, guid: 9541d86e2fd84c1d9990edf0852d74ab, type: 3}
  m_Name: 
  m_EditorClassIdentifier: 
  m_Material: {fileID: 0}
  m_Color: {r: 1, g: 1, b: 1, a: 1}
  m_RaycastTarget: 1
  m_RaycastPadding: {x: 0, y: 0, z: 0, w: 0}
  m_Maskable: 1
  m_OnCullStateChanged:
    m_PersistentCalls:
      m_Calls: []
  m_text: Czekaj na uruchomienie
  m_isRightToLeft: 0
  m_fontAsset: {fileID: 11400000, guid: 8f586378b4e144a9851e7b34d9b748ee, type: 2}
  m_sharedMaterial: {fileID: 2180264, guid: 8f586378b4e144a9851e7b34d9b748ee, type: 2}
  m_fontSharedMaterials: []
  m_fontMaterial: {fileID: 0}
  m_fontMaterials: []
  m_fontColor32:
    serializedVersion: 2
    rgba: 4294967295
  m_fontColor: {r: 1, g: 1, b: 1, a: 1}
  m_enableVertexGradient: 0
  m_colorMode: 3
  m_fontColorGradient:
    topLeft: {r: 1, g: 1, b: 1, a: 1}
    topRight: {r: 1, g: 1, b: 1, a: 1}
    bottomLeft: {r: 1, g: 1, b: 1, a: 1}
    bottomRight: {r: 1, g: 1, b: 1, a: 1}
  m_fontColorGradientPreset: {fileID: 0}
  m_spriteAsset: {fileID: 0}
  m_tintAllSprites: 0
  m_StyleSheet: {fileID: 0}
  m_TextStyleHashCode: -1183493901
  m_overrideHtmlColors: 0
  m_faceColor:
    serializedVersion: 2
    rgba: 4294967295
  m_fontSize: 36
  m_fontSizeBase: 36
  m_fontWeight: 400
  m_enableAutoSizing: 0
  m_fontSizeMin: 18
  m_fontSizeMax: 72
  m_fontStyle: 0
  m_HorizontalAlignment: 1
  m_VerticalAlignment: 256
  m_textAlignment: 65535
  m_characterSpacing: 0
  m_wordSpacing: 0
  m_lineSpacing: 0
  m_lineSpacingMax: 0
  m_paragraphSpacing: 0
  m_charWidthMaxAdj: 0
  m_enableWordWrapping: 1
  m_wordWrappingRatios: 0.4
  m_overflowMode: 0
  m_linkedTextComponent: {fileID: 0}
  parentLinkedComponent: {fileID: 0}
  m_enableKerning: 1
  m_enableExtraPadding: 0
  checkPaddingRequired: 0
  m_isRichText: 1
  m_parseCtrlCharacters: 1
  m_isOrthographic: 0
  m_isCullingEnabled: 0
  m_horizontalMapping: 0
  m_verticalMapping: 0
  m_uvLineOffset: 0
  m_geometrySortingOrder: 0
  m_IsTextObjectScaleStatic: 0
  m_VertexBufferAutoSizeReduction: 0
  m_useMaxVisibleDescender: 1
  m_pageToDisplay: 1
  m_margin: {x: 0, y: 0, z: -4.2413855, w: 0}
  m_isUsingLegacyAnimationComponent: 0
  m_isVolumetricText: 0
  _SortingLayer: 0
  _SortingLayerID: 0
  _SortingOrder: 0
  m_hasFontAssetChanged: 0
  m_renderer: {fileID: 1217628955}
  m_maskType: 0
--- !u!23 &1217628955
MeshRenderer:
  m_ObjectHideFlags: 0
  m_CorrespondingSourceObject: {fileID: 0}
  m_PrefabInstance: {fileID: 0}
  m_PrefabAsset: {fileID: 0}
  m_GameObject: {fileID: 1217628953}
  m_Enabled: 1
  m_CastShadows: 0
  m_ReceiveShadows: 0
  m_DynamicOccludee: 1
  m_StaticShadowCaster: 0
  m_MotionVectors: 1
  m_LightProbeUsage: 1
  m_ReflectionProbeUsage: 1
  m_RayTracingMode: 2
  m_RayTraceProcedural: 0
  m_RenderingLayerMask: 1
  m_RendererPriority: 0
  m_Materials:
  - {fileID: 2180264, guid: 8f586378b4e144a9851e7b34d9b748ee, type: 2}
  m_StaticBatchInfo:
    firstSubMesh: 0
    subMeshCount: 0
  m_StaticBatchRoot: {fileID: 0}
  m_ProbeAnchor: {fileID: 0}
  m_LightProbeVolumeOverride: {fileID: 0}
  m_ScaleInLightmap: 1
  m_ReceiveGI: 1
  m_PreserveUVs: 0
  m_IgnoreNormalsForChartDetection: 0
  m_ImportantGI: 0
  m_StitchLightmapSeams: 1
  m_SelectedEditorRenderState: 3
  m_MinimumChartSize: 4
  m_AutoUVMaxDistance: 0.5
  m_AutoUVMaxAngle: 89
  m_LightmapParameters: {fileID: 0}
  m_SortingLayerID: 0
  m_SortingLayer: 0
  m_SortingOrder: 0
  m_AdditionalVertexStreams: {fileID: 0}
--- !u!224 &1217628956
RectTransform:
  m_ObjectHideFlags: 0
  m_CorrespondingSourceObject: {fileID: 0}
  m_PrefabInstance: {fileID: 0}
  m_PrefabAsset: {fileID: 0}
  m_GameObject: {fileID: 1217628953}
  m_LocalRotation: {x: 0, y: 0, z: 0, w: 1}
  m_LocalPosition: {x: 0, y: 0, z: 0}
  m_LocalScale: {x: 1, y: 1, z: 1}
  m_ConstrainProportionsScale: 0
  m_Children: []
  m_Father: {fileID: 0}
  m_RootOrder: 8
  m_LocalEulerAnglesHint: {x: 0, y: 0, z: 0}
  m_AnchorMin: {x: 0.5, y: 0.5}
  m_AnchorMax: {x: 0.5, y: 0.5}
  m_AnchoredPosition: {x: 0.7, y: 2.11}
  m_SizeDelta: {x: 20, y: 5}
  m_Pivot: {x: 0.5, y: 0.5}
--- !u!1001 &1333989173
PrefabInstance:
  m_ObjectHideFlags: 0
  serializedVersion: 2
  m_Modification:
    m_TransformParent: {fileID: 1662709837}
    m_Modifications:
    - target: {fileID: 2784421284666592680, guid: f17746ea7d2bf7f4fb6f629bbe718802, type: 3}
      propertyPath: m_RootOrder
      value: 0
      objectReference: {fileID: 0}
    - target: {fileID: 2784421284666592680, guid: f17746ea7d2bf7f4fb6f629bbe718802, type: 3}
      propertyPath: m_LocalScale.x
      value: 0.098684214
      objectReference: {fileID: 0}
    - target: {fileID: 2784421284666592680, guid: f17746ea7d2bf7f4fb6f629bbe718802, type: 3}
      propertyPath: m_LocalScale.y
      value: 0.098684214
      objectReference: {fileID: 0}
    - target: {fileID: 2784421284666592680, guid: f17746ea7d2bf7f4fb6f629bbe718802, type: 3}
      propertyPath: m_LocalScale.z
      value: 0.098684214
      objectReference: {fileID: 0}
    - target: {fileID: 2784421284666592680, guid: f17746ea7d2bf7f4fb6f629bbe718802, type: 3}
      propertyPath: m_LocalPosition.x
      value: 0
      objectReference: {fileID: 0}
    - target: {fileID: 2784421284666592680, guid: f17746ea7d2bf7f4fb6f629bbe718802, type: 3}
      propertyPath: m_LocalPosition.y
      value: 0
      objectReference: {fileID: 0}
    - target: {fileID: 2784421284666592680, guid: f17746ea7d2bf7f4fb6f629bbe718802, type: 3}
      propertyPath: m_LocalPosition.z
      value: -0.23
      objectReference: {fileID: 0}
    - target: {fileID: 2784421284666592680, guid: f17746ea7d2bf7f4fb6f629bbe718802, type: 3}
      propertyPath: m_LocalRotation.w
      value: 0
      objectReference: {fileID: 0}
    - target: {fileID: 2784421284666592680, guid: f17746ea7d2bf7f4fb6f629bbe718802, type: 3}
      propertyPath: m_LocalRotation.x
      value: -0
      objectReference: {fileID: 0}
    - target: {fileID: 2784421284666592680, guid: f17746ea7d2bf7f4fb6f629bbe718802, type: 3}
      propertyPath: m_LocalRotation.y
      value: 1
      objectReference: {fileID: 0}
    - target: {fileID: 2784421284666592680, guid: f17746ea7d2bf7f4fb6f629bbe718802, type: 3}
      propertyPath: m_LocalRotation.z
      value: -0
      objectReference: {fileID: 0}
    - target: {fileID: 2784421284666592680, guid: f17746ea7d2bf7f4fb6f629bbe718802, type: 3}
      propertyPath: m_LocalEulerAnglesHint.x
      value: 0
      objectReference: {fileID: 0}
    - target: {fileID: 2784421284666592680, guid: f17746ea7d2bf7f4fb6f629bbe718802, type: 3}
      propertyPath: m_LocalEulerAnglesHint.y
      value: 180
      objectReference: {fileID: 0}
    - target: {fileID: 2784421284666592680, guid: f17746ea7d2bf7f4fb6f629bbe718802, type: 3}
      propertyPath: m_LocalEulerAnglesHint.z
      value: 0
      objectReference: {fileID: 0}
    - target: {fileID: 2784421284666592682, guid: f17746ea7d2bf7f4fb6f629bbe718802, type: 3}
      propertyPath: target
      value: 
      objectReference: {fileID: 5354405693169996842, guid: 8b7cfebd693bada4b95bc4f9b6607c72, type: 3}
    - target: {fileID: 2784421284666592682, guid: f17746ea7d2bf7f4fb6f629bbe718802, type: 3}
      propertyPath: neuroTag
      value: 
      objectReference: {fileID: 5354405693169996842, guid: 8b7cfebd693bada4b95bc4f9b6607c72, type: 3}
    - target: {fileID: 2784421284666592682, guid: f17746ea7d2bf7f4fb6f629bbe718802, type: 3}
      propertyPath: smoothingSpeed
      value: 10
      objectReference: {fileID: 0}
    - target: {fileID: 2784421284666592683, guid: f17746ea7d2bf7f4fb6f629bbe718802, type: 3}
      propertyPath: m_Name
      value: TriangleFeedback_Front
      objectReference: {fileID: 0}
    - target: {fileID: 3796235206360208172, guid: f17746ea7d2bf7f4fb6f629bbe718802, type: 3}
      propertyPath: m_DynamicOccludee
      value: 1
      objectReference: {fileID: 0}
    - target: {fileID: 4781141049099387086, guid: f17746ea7d2bf7f4fb6f629bbe718802, type: 3}
      propertyPath: m_DynamicOccludee
      value: 1
      objectReference: {fileID: 0}
    - target: {fileID: 5998451569319936751, guid: f17746ea7d2bf7f4fb6f629bbe718802, type: 3}
      propertyPath: neuroTag
      value: 
      objectReference: {fileID: 0}
    - target: {fileID: 8578901137882341380, guid: f17746ea7d2bf7f4fb6f629bbe718802, type: 3}
      propertyPath: m_DynamicOccludee
      value: 1
      objectReference: {fileID: 0}
    m_RemovedComponents: []
  m_SourcePrefab: {fileID: 100100000, guid: f17746ea7d2bf7f4fb6f629bbe718802, type: 3}
--- !u!1 &1360092527 stripped
GameObject:
  m_CorrespondingSourceObject: {fileID: 2784421284666592683, guid: f17746ea7d2bf7f4fb6f629bbe718802, type: 3}
  m_PrefabInstance: {fileID: 1923065566}
  m_PrefabAsset: {fileID: 0}
--- !u!4 &1360092528 stripped
Transform:
  m_CorrespondingSourceObject: {fileID: 2784421284666592680, guid: f17746ea7d2bf7f4fb6f629bbe718802, type: 3}
  m_PrefabInstance: {fileID: 1923065566}
  m_PrefabAsset: {fileID: 0}
--- !u!114 &1360092529
MonoBehaviour:
  m_ObjectHideFlags: 0
  m_CorrespondingSourceObject: {fileID: 0}
  m_PrefabInstance: {fileID: 0}
  m_PrefabAsset: {fileID: 0}
  m_GameObject: {fileID: 1360092527}
  m_Enabled: 1
  m_EditorHideFlags: 0
  m_Script: {fileID: 11500000, guid: 74307427d1670b547850738d38105070, type: 3}
  m_Name: 
  m_EditorClassIdentifier: 
  hasMaxSize: 1
  maxSize: {x: 0.5, y: 0.5, z: 0.5}
  referenceDistance: 0
--- !u!1 &1662709836
GameObject:
  m_ObjectHideFlags: 0
  m_CorrespondingSourceObject: {fileID: 0}
  m_PrefabInstance: {fileID: 0}
  m_PrefabAsset: {fileID: 0}
  serializedVersion: 6
  m_Component:
  - component: {fileID: 1662709837}
  - component: {fileID: 1662709842}
  - component: {fileID: 1662709841}
  - component: {fileID: 1662709840}
  - component: {fileID: 1662709839}
  - component: {fileID: 1662709838}
  m_Layer: 0
  m_Name: Quad_Y+
  m_TagString: Untagged
  m_Icon: {fileID: 0}
  m_NavMeshLayer: 0
  m_StaticEditorFlags: 0
  m_IsActive: 1
--- !u!4 &1662709837
Transform:
  m_ObjectHideFlags: 0
  m_CorrespondingSourceObject: {fileID: 0}
  m_PrefabInstance: {fileID: 0}
  m_PrefabAsset: {fileID: 0}
  m_GameObject: {fileID: 1662709836}
  m_LocalRotation: {x: 0.7071068, y: -0.7071068, z: 0, w: 0}
  m_LocalPosition: {x: 0, y: 1.5, z: 0}
  m_LocalScale: {x: 0.8, y: 0.8, z: 0.8}
  m_ConstrainProportionsScale: 1
  m_Children:
  - {fileID: 223185812}
  m_Father: {fileID: 1898965684}
  m_RootOrder: 3
  m_LocalEulerAnglesHint: {x: 0, y: 180, z: 270}
--- !u!114 &1662709838
MonoBehaviour:
  m_ObjectHideFlags: 0
  m_CorrespondingSourceObject: {fileID: 0}
  m_PrefabInstance: {fileID: 0}
  m_PrefabAsset: {fileID: 0}
  m_GameObject: {fileID: 1662709836}
  m_Enabled: 1
  m_EditorHideFlags: 0
  m_Script: {fileID: 11500000, guid: de30d0362e04bd74891c9efb725f5db2, type: 3}
  m_Name: 
  m_EditorClassIdentifier: 
  velocity: {x: 0, y: 1, z: 0}
  objectToMove: {fileID: 1898965684}
--- !u!114 &1662709839
MonoBehaviour:
  m_ObjectHideFlags: 0
  m_CorrespondingSourceObject: {fileID: 0}
  m_PrefabInstance: {fileID: 0}
  m_PrefabAsset: {fileID: 0}
  m_GameObject: {fileID: 1662709836}
  m_Enabled: 1
  m_EditorHideFlags: 0
  m_Script: {fileID: 1722872790, guid: 6b6297cc7749f8640b6389fa7c92f21c, type: 3}
  m_Name: 
  m_EditorClassIdentifier: 
  stimulationRenderers:
  - {fileID: 1662709836}
  trackableByPlayers: -1
  stimulationUpdateBehaviourType: 0
  onTriggered:
    m_PersistentCalls:
      m_Calls:
      - m_Target: {fileID: 1662709838}
        m_TargetAssemblyTypeName: TelekineticObject, Assembly-CSharp
        m_MethodName: StartFocus
        m_Mode: 1
        m_Arguments:
          m_ObjectArgument: {fileID: 0}
          m_ObjectArgumentAssemblyTypeName: UnityEngine.Object, UnityEngine
          m_IntArgument: 0
          m_FloatArgument: 0
          m_StringArgument: 
          m_BoolArgument: 0
        m_CallState: 2
  onMaintained:
    m_PersistentCalls:
      m_Calls: []
  onReleased:
    m_PersistentCalls:
      m_Calls:
      - m_Target: {fileID: 1662709838}
        m_TargetAssemblyTypeName: TelekineticObject, Assembly-CSharp
        m_MethodName: StopFocus
        m_Mode: 1
        m_Arguments:
          m_ObjectArgument: {fileID: 0}
          m_ObjectArgumentAssemblyTypeName: UnityEngine.Object, UnityEngine
          m_IntArgument: 0
          m_FloatArgument: 0
          m_StringArgument: 
          m_BoolArgument: 0
        m_CallState: 2
  onConfidenceChanged:
    m_PersistentCalls:
      m_Calls: []
  onBecameActivated:
    m_PersistentCalls:
      m_Calls: []
  onBecameDeactivated:
    m_PersistentCalls:
      m_Calls: []
  onStimulationStateUpdated:
    m_PersistentCalls:
      m_Calls: []
  m_Delegates: 0000000002000000
--- !u!64 &1662709840
MeshCollider:
  m_ObjectHideFlags: 0
  m_CorrespondingSourceObject: {fileID: 0}
  m_PrefabInstance: {fileID: 0}
  m_PrefabAsset: {fileID: 0}
  m_GameObject: {fileID: 1662709836}
  m_Material: {fileID: 0}
  m_IsTrigger: 0
  m_Enabled: 1
  serializedVersion: 4
  m_Convex: 0
  m_CookingOptions: 30
  m_Mesh: {fileID: 10210, guid: 0000000000000000e000000000000000, type: 0}
--- !u!23 &1662709841
MeshRenderer:
  m_ObjectHideFlags: 0
  m_CorrespondingSourceObject: {fileID: 0}
  m_PrefabInstance: {fileID: 0}
  m_PrefabAsset: {fileID: 0}
  m_GameObject: {fileID: 1662709836}
  m_Enabled: 1
  m_CastShadows: 1
  m_ReceiveShadows: 1
  m_DynamicOccludee: 1
  m_StaticShadowCaster: 0
  m_MotionVectors: 1
  m_LightProbeUsage: 1
  m_ReflectionProbeUsage: 1
  m_RayTracingMode: 2
  m_RayTraceProcedural: 0
  m_RenderingLayerMask: 1
  m_RendererPriority: 0
  m_Materials:
  - {fileID: 2100000, guid: 6e31aed0fff2d754685d2b4e6d53c7e1, type: 2}
  m_StaticBatchInfo:
    firstSubMesh: 0
    subMeshCount: 0
  m_StaticBatchRoot: {fileID: 0}
  m_ProbeAnchor: {fileID: 0}
  m_LightProbeVolumeOverride: {fileID: 0}
  m_ScaleInLightmap: 1
  m_ReceiveGI: 1
  m_PreserveUVs: 0
  m_IgnoreNormalsForChartDetection: 0
  m_ImportantGI: 0
  m_StitchLightmapSeams: 1
  m_SelectedEditorRenderState: 3
  m_MinimumChartSize: 4
  m_AutoUVMaxDistance: 0.5
  m_AutoUVMaxAngle: 89
  m_LightmapParameters: {fileID: 0}
  m_SortingLayerID: 0
  m_SortingLayer: 0
  m_SortingOrder: 0
  m_AdditionalVertexStreams: {fileID: 0}
--- !u!33 &1662709842
MeshFilter:
  m_ObjectHideFlags: 0
  m_CorrespondingSourceObject: {fileID: 0}
  m_PrefabInstance: {fileID: 0}
  m_PrefabAsset: {fileID: 0}
  m_GameObject: {fileID: 1662709836}
  m_Mesh: {fileID: 5426058814172902527, guid: 068155645af2a6e438b901bf45ec8b74, type: 3}
--- !u!1 &1672878380 stripped
GameObject:
  m_CorrespondingSourceObject: {fileID: 2784421284666592683, guid: f17746ea7d2bf7f4fb6f629bbe718802, type: 3}
  m_PrefabInstance: {fileID: 857025204}
  m_PrefabAsset: {fileID: 0}
--- !u!4 &1672878381 stripped
Transform:
  m_CorrespondingSourceObject: {fileID: 2784421284666592680, guid: f17746ea7d2bf7f4fb6f629bbe718802, type: 3}
  m_PrefabInstance: {fileID: 857025204}
  m_PrefabAsset: {fileID: 0}
--- !u!114 &1672878382
MonoBehaviour:
  m_ObjectHideFlags: 0
  m_CorrespondingSourceObject: {fileID: 0}
  m_PrefabInstance: {fileID: 0}
  m_PrefabAsset: {fileID: 0}
  m_GameObject: {fileID: 1672878380}
  m_Enabled: 1
  m_EditorHideFlags: 0
  m_Script: {fileID: 11500000, guid: 74307427d1670b547850738d38105070, type: 3}
  m_Name: 
  m_EditorClassIdentifier: 
  hasMaxSize: 1
  maxSize: {x: 0.5, y: 0.5, z: 0.5}
  referenceDistance: 0
--- !u!4 &1898965684 stripped
Transform:
  m_CorrespondingSourceObject: {fileID: 5693460984210187730, guid: 34acbe215f4513143b55656fb072ed09, type: 3}
  m_PrefabInstance: {fileID: 5693460985567448934}
  m_PrefabAsset: {fileID: 0}
--- !u!1001 &1923065566
PrefabInstance:
  m_ObjectHideFlags: 0
  serializedVersion: 2
  m_Modification:
    m_TransformParent: {fileID: 1127048343}
    m_Modifications:
    - target: {fileID: 2784421284666592680, guid: f17746ea7d2bf7f4fb6f629bbe718802, type: 3}
      propertyPath: m_RootOrder
      value: 0
      objectReference: {fileID: 0}
    - target: {fileID: 2784421284666592680, guid: f17746ea7d2bf7f4fb6f629bbe718802, type: 3}
      propertyPath: m_LocalScale.x
      value: 0.098684214
      objectReference: {fileID: 0}
    - target: {fileID: 2784421284666592680, guid: f17746ea7d2bf7f4fb6f629bbe718802, type: 3}
      propertyPath: m_LocalScale.y
      value: 0.098684214
      objectReference: {fileID: 0}
    - target: {fileID: 2784421284666592680, guid: f17746ea7d2bf7f4fb6f629bbe718802, type: 3}
      propertyPath: m_LocalScale.z
      value: 0.098684214
      objectReference: {fileID: 0}
    - target: {fileID: 2784421284666592680, guid: f17746ea7d2bf7f4fb6f629bbe718802, type: 3}
      propertyPath: m_LocalPosition.x
      value: 0
      objectReference: {fileID: 0}
    - target: {fileID: 2784421284666592680, guid: f17746ea7d2bf7f4fb6f629bbe718802, type: 3}
      propertyPath: m_LocalPosition.y
      value: 0
      objectReference: {fileID: 0}
    - target: {fileID: 2784421284666592680, guid: f17746ea7d2bf7f4fb6f629bbe718802, type: 3}
      propertyPath: m_LocalPosition.z
      value: -0.23
      objectReference: {fileID: 0}
    - target: {fileID: 2784421284666592680, guid: f17746ea7d2bf7f4fb6f629bbe718802, type: 3}
      propertyPath: m_LocalRotation.w
      value: 0
      objectReference: {fileID: 0}
    - target: {fileID: 2784421284666592680, guid: f17746ea7d2bf7f4fb6f629bbe718802, type: 3}
      propertyPath: m_LocalRotation.x
      value: -0
      objectReference: {fileID: 0}
    - target: {fileID: 2784421284666592680, guid: f17746ea7d2bf7f4fb6f629bbe718802, type: 3}
      propertyPath: m_LocalRotation.y
      value: 1
      objectReference: {fileID: 0}
    - target: {fileID: 2784421284666592680, guid: f17746ea7d2bf7f4fb6f629bbe718802, type: 3}
      propertyPath: m_LocalRotation.z
      value: -0
      objectReference: {fileID: 0}
    - target: {fileID: 2784421284666592680, guid: f17746ea7d2bf7f4fb6f629bbe718802, type: 3}
      propertyPath: m_LocalEulerAnglesHint.x
      value: 0
      objectReference: {fileID: 0}
    - target: {fileID: 2784421284666592680, guid: f17746ea7d2bf7f4fb6f629bbe718802, type: 3}
      propertyPath: m_LocalEulerAnglesHint.y
      value: 180
      objectReference: {fileID: 0}
    - target: {fileID: 2784421284666592680, guid: f17746ea7d2bf7f4fb6f629bbe718802, type: 3}
      propertyPath: m_LocalEulerAnglesHint.z
      value: 0
      objectReference: {fileID: 0}
    - target: {fileID: 2784421284666592682, guid: f17746ea7d2bf7f4fb6f629bbe718802, type: 3}
      propertyPath: target
      value: 
      objectReference: {fileID: 5354405693169996842, guid: 8b7cfebd693bada4b95bc4f9b6607c72, type: 3}
    - target: {fileID: 2784421284666592682, guid: f17746ea7d2bf7f4fb6f629bbe718802, type: 3}
      propertyPath: neuroTag
      value: 
      objectReference: {fileID: 5354405693169996842, guid: 8b7cfebd693bada4b95bc4f9b6607c72, type: 3}
    - target: {fileID: 2784421284666592682, guid: f17746ea7d2bf7f4fb6f629bbe718802, type: 3}
      propertyPath: smoothingSpeed
      value: 10
      objectReference: {fileID: 0}
    - target: {fileID: 2784421284666592683, guid: f17746ea7d2bf7f4fb6f629bbe718802, type: 3}
      propertyPath: m_Name
      value: TriangleFeedback_Front
      objectReference: {fileID: 0}
    - target: {fileID: 3796235206360208172, guid: f17746ea7d2bf7f4fb6f629bbe718802, type: 3}
      propertyPath: m_DynamicOccludee
      value: 1
      objectReference: {fileID: 0}
    - target: {fileID: 4781141049099387086, guid: f17746ea7d2bf7f4fb6f629bbe718802, type: 3}
      propertyPath: m_DynamicOccludee
      value: 1
      objectReference: {fileID: 0}
    - target: {fileID: 5998451569319936751, guid: f17746ea7d2bf7f4fb6f629bbe718802, type: 3}
      propertyPath: neuroTag
      value: 
      objectReference: {fileID: 0}
    - target: {fileID: 8578901137882341380, guid: f17746ea7d2bf7f4fb6f629bbe718802, type: 3}
      propertyPath: m_DynamicOccludee
      value: 1
      objectReference: {fileID: 0}
    m_RemovedComponents: []
  m_SourcePrefab: {fileID: 100100000, guid: f17746ea7d2bf7f4fb6f629bbe718802, type: 3}
--- !u!1001 &2144505961
PrefabInstance:
  m_ObjectHideFlags: 0
  serializedVersion: 2
  m_Modification:
    m_TransformParent: {fileID: 740600529}
    m_Modifications:
    - target: {fileID: 2784421284666592680, guid: f17746ea7d2bf7f4fb6f629bbe718802, type: 3}
      propertyPath: m_RootOrder
      value: 0
      objectReference: {fileID: 0}
    - target: {fileID: 2784421284666592680, guid: f17746ea7d2bf7f4fb6f629bbe718802, type: 3}
      propertyPath: m_LocalScale.x
      value: 0.098684214
      objectReference: {fileID: 0}
    - target: {fileID: 2784421284666592680, guid: f17746ea7d2bf7f4fb6f629bbe718802, type: 3}
      propertyPath: m_LocalScale.y
      value: 0.098684214
      objectReference: {fileID: 0}
    - target: {fileID: 2784421284666592680, guid: f17746ea7d2bf7f4fb6f629bbe718802, type: 3}
      propertyPath: m_LocalScale.z
      value: 0.098684214
      objectReference: {fileID: 0}
    - target: {fileID: 2784421284666592680, guid: f17746ea7d2bf7f4fb6f629bbe718802, type: 3}
      propertyPath: m_LocalPosition.x
      value: 0
      objectReference: {fileID: 0}
    - target: {fileID: 2784421284666592680, guid: f17746ea7d2bf7f4fb6f629bbe718802, type: 3}
      propertyPath: m_LocalPosition.y
      value: 0
      objectReference: {fileID: 0}
    - target: {fileID: 2784421284666592680, guid: f17746ea7d2bf7f4fb6f629bbe718802, type: 3}
      propertyPath: m_LocalPosition.z
      value: -0.23
      objectReference: {fileID: 0}
    - target: {fileID: 2784421284666592680, guid: f17746ea7d2bf7f4fb6f629bbe718802, type: 3}
      propertyPath: m_LocalRotation.w
      value: 0
      objectReference: {fileID: 0}
    - target: {fileID: 2784421284666592680, guid: f17746ea7d2bf7f4fb6f629bbe718802, type: 3}
      propertyPath: m_LocalRotation.x
      value: -0
      objectReference: {fileID: 0}
    - target: {fileID: 2784421284666592680, guid: f17746ea7d2bf7f4fb6f629bbe718802, type: 3}
      propertyPath: m_LocalRotation.y
      value: 1
      objectReference: {fileID: 0}
    - target: {fileID: 2784421284666592680, guid: f17746ea7d2bf7f4fb6f629bbe718802, type: 3}
      propertyPath: m_LocalRotation.z
      value: -0
      objectReference: {fileID: 0}
    - target: {fileID: 2784421284666592680, guid: f17746ea7d2bf7f4fb6f629bbe718802, type: 3}
      propertyPath: m_LocalEulerAnglesHint.x
      value: 0
      objectReference: {fileID: 0}
    - target: {fileID: 2784421284666592680, guid: f17746ea7d2bf7f4fb6f629bbe718802, type: 3}
      propertyPath: m_LocalEulerAnglesHint.y
      value: 180
      objectReference: {fileID: 0}
    - target: {fileID: 2784421284666592680, guid: f17746ea7d2bf7f4fb6f629bbe718802, type: 3}
      propertyPath: m_LocalEulerAnglesHint.z
      value: 0
      objectReference: {fileID: 0}
    - target: {fileID: 2784421284666592682, guid: f17746ea7d2bf7f4fb6f629bbe718802, type: 3}
      propertyPath: target
      value: 
      objectReference: {fileID: 5354405693169996842, guid: 8b7cfebd693bada4b95bc4f9b6607c72, type: 3}
    - target: {fileID: 2784421284666592682, guid: f17746ea7d2bf7f4fb6f629bbe718802, type: 3}
      propertyPath: neuroTag
      value: 
      objectReference: {fileID: 5354405693169996842, guid: 8b7cfebd693bada4b95bc4f9b6607c72, type: 3}
    - target: {fileID: 2784421284666592682, guid: f17746ea7d2bf7f4fb6f629bbe718802, type: 3}
      propertyPath: smoothingSpeed
      value: 10
      objectReference: {fileID: 0}
    - target: {fileID: 2784421284666592683, guid: f17746ea7d2bf7f4fb6f629bbe718802, type: 3}
      propertyPath: m_Name
      value: TriangleFeedback_Front
      objectReference: {fileID: 0}
    - target: {fileID: 3796235206360208172, guid: f17746ea7d2bf7f4fb6f629bbe718802, type: 3}
      propertyPath: m_DynamicOccludee
      value: 1
      objectReference: {fileID: 0}
    - target: {fileID: 4781141049099387086, guid: f17746ea7d2bf7f4fb6f629bbe718802, type: 3}
      propertyPath: m_DynamicOccludee
      value: 1
      objectReference: {fileID: 0}
    - target: {fileID: 5998451569319936751, guid: f17746ea7d2bf7f4fb6f629bbe718802, type: 3}
      propertyPath: neuroTag
      value: 
      objectReference: {fileID: 0}
    - target: {fileID: 8578901137882341380, guid: f17746ea7d2bf7f4fb6f629bbe718802, type: 3}
      propertyPath: m_DynamicOccludee
      value: 1
      objectReference: {fileID: 0}
    m_RemovedComponents: []
  m_SourcePrefab: {fileID: 100100000, guid: f17746ea7d2bf7f4fb6f629bbe718802, type: 3}
--- !u!1001 &5693460985567448934
PrefabInstance:
  m_ObjectHideFlags: 0
  serializedVersion: 2
  m_Modification:
    m_TransformParent: {fileID: 0}
    m_Modifications:
    - target: {fileID: 5693460984210187730, guid: 34acbe215f4513143b55656fb072ed09, type: 3}
      propertyPath: m_RootOrder
      value: 4
      objectReference: {fileID: 0}
    - target: {fileID: 5693460984210187730, guid: 34acbe215f4513143b55656fb072ed09, type: 3}
      propertyPath: m_LocalPosition.x
      value: 1.24
      objectReference: {fileID: 0}
    - target: {fileID: 5693460984210187730, guid: 34acbe215f4513143b55656fb072ed09, type: 3}
      propertyPath: m_LocalPosition.y
      value: 0.08
      objectReference: {fileID: 0}
    - target: {fileID: 5693460984210187730, guid: 34acbe215f4513143b55656fb072ed09, type: 3}
      propertyPath: m_LocalPosition.z
      value: 0
      objectReference: {fileID: 0}
    - target: {fileID: 5693460984210187730, guid: 34acbe215f4513143b55656fb072ed09, type: 3}
      propertyPath: m_LocalRotation.w
      value: 1
      objectReference: {fileID: 0}
    - target: {fileID: 5693460984210187730, guid: 34acbe215f4513143b55656fb072ed09, type: 3}
      propertyPath: m_LocalRotation.x
      value: 0
      objectReference: {fileID: 0}
    - target: {fileID: 5693460984210187730, guid: 34acbe215f4513143b55656fb072ed09, type: 3}
      propertyPath: m_LocalRotation.y
      value: 0
      objectReference: {fileID: 0}
    - target: {fileID: 5693460984210187730, guid: 34acbe215f4513143b55656fb072ed09, type: 3}
      propertyPath: m_LocalRotation.z
      value: 0
      objectReference: {fileID: 0}
    - target: {fileID: 5693460984210187730, guid: 34acbe215f4513143b55656fb072ed09, type: 3}
      propertyPath: m_LocalEulerAnglesHint.x
      value: 0
      objectReference: {fileID: 0}
    - target: {fileID: 5693460984210187730, guid: 34acbe215f4513143b55656fb072ed09, type: 3}
      propertyPath: m_LocalEulerAnglesHint.y
      value: 0
      objectReference: {fileID: 0}
    - target: {fileID: 5693460984210187730, guid: 34acbe215f4513143b55656fb072ed09, type: 3}
      propertyPath: m_LocalEulerAnglesHint.z
      value: 0
      objectReference: {fileID: 0}
    - target: {fileID: 5693460984210187734, guid: 34acbe215f4513143b55656fb072ed09, type: 3}
      propertyPath: m_Name
      value: drone
      objectReference: {fileID: 0}
    - target: {fileID: 5693460985721703768, guid: 34acbe215f4513143b55656fb072ed09, type: 3}
      propertyPath: spot
      value: 
      objectReference: {fileID: 365345079}
    - target: {fileID: 5693460985721703768, guid: 34acbe215f4513143b55656fb072ed09, type: 3}
      propertyPath: counter
      value: 
      objectReference: {fileID: 1217628954}
    - target: {fileID: 5693460985721703769, guid: 34acbe215f4513143b55656fb072ed09, type: 3}
      propertyPath: testName
      value: ArrowsAttached
      objectReference: {fileID: 0}
    - target: {fileID: 5693460985721703769, guid: 34acbe215f4513143b55656fb072ed09, type: 3}
      propertyPath: logFileName
      value: '%d_ArrowAttached.log'
      objectReference: {fileID: 0}
    - target: {fileID: 5693460985721703769, guid: 34acbe215f4513143b55656fb072ed09, type: 3}
      propertyPath: summaryFileName
      value: '%d_ArrowAttached_summary.log'
      objectReference: {fileID: 0}
    m_RemovedComponents: []
  m_SourcePrefab: {fileID: 100100000, guid: 34acbe215f4513143b55656fb072ed09, type: 3}
--- !u!1001 &5693576816963791414
PrefabInstance:
  m_ObjectHideFlags: 0
  serializedVersion: 2
  m_Modification:
    m_TransformParent: {fileID: 0}
    m_Modifications:
    - target: {fileID: 2240687318945654914, guid: ffccb62dcc2f8934c90458ec3e9e551d, type: 3}
      propertyPath: m_Name
      value: NeuroManager
      objectReference: {fileID: 0}
    - target: {fileID: 2240687318945654973, guid: ffccb62dcc2f8934c90458ec3e9e551d, type: 3}
      propertyPath: trackingCamera
      value: 
      objectReference: {fileID: 963194227}
    - target: {fileID: 2240687318945654975, guid: ffccb62dcc2f8934c90458ec3e9e551d, type: 3}
      propertyPath: m_RootOrder
      value: 3
      objectReference: {fileID: 0}
    - target: {fileID: 2240687318945654975, guid: ffccb62dcc2f8934c90458ec3e9e551d, type: 3}
      propertyPath: m_LocalPosition.x
      value: 0
      objectReference: {fileID: 0}
    - target: {fileID: 2240687318945654975, guid: ffccb62dcc2f8934c90458ec3e9e551d, type: 3}
      propertyPath: m_LocalPosition.y
      value: 0
      objectReference: {fileID: 0}
    - target: {fileID: 2240687318945654975, guid: ffccb62dcc2f8934c90458ec3e9e551d, type: 3}
      propertyPath: m_LocalPosition.z
      value: 0
      objectReference: {fileID: 0}
    - target: {fileID: 2240687318945654975, guid: ffccb62dcc2f8934c90458ec3e9e551d, type: 3}
      propertyPath: m_LocalRotation.w
      value: 1
      objectReference: {fileID: 0}
    - target: {fileID: 2240687318945654975, guid: ffccb62dcc2f8934c90458ec3e9e551d, type: 3}
      propertyPath: m_LocalRotation.x
      value: 0
      objectReference: {fileID: 0}
    - target: {fileID: 2240687318945654975, guid: ffccb62dcc2f8934c90458ec3e9e551d, type: 3}
      propertyPath: m_LocalRotation.y
      value: 0
      objectReference: {fileID: 0}
    - target: {fileID: 2240687318945654975, guid: ffccb62dcc2f8934c90458ec3e9e551d, type: 3}
      propertyPath: m_LocalRotation.z
      value: 0
      objectReference: {fileID: 0}
    - target: {fileID: 2240687318945654975, guid: ffccb62dcc2f8934c90458ec3e9e551d, type: 3}
      propertyPath: m_LocalEulerAnglesHint.x
      value: 0
      objectReference: {fileID: 0}
    - target: {fileID: 2240687318945654975, guid: ffccb62dcc2f8934c90458ec3e9e551d, type: 3}
      propertyPath: m_LocalEulerAnglesHint.y
      value: 0
      objectReference: {fileID: 0}
    - target: {fileID: 2240687318945654975, guid: ffccb62dcc2f8934c90458ec3e9e551d, type: 3}
      propertyPath: m_LocalEulerAnglesHint.z
      value: 0
      objectReference: {fileID: 0}
    m_RemovedComponents: []
  m_SourcePrefab: {fileID: 100100000, guid: ffccb62dcc2f8934c90458ec3e9e551d, type: 3}
